id,first_name,last_name
1,Anne,O.
2,Dennis,W.
3,Teresa,J.
4,Elizabeth,S.
5,Henry,S.
6,Gregory,A.
7,Marie,H.
8,Anna,O.
9,Edward,P.
10,Martin,F.
11,Dennis,A.
12,David,O.
13,Alan,M.
14,Henry,O.
15,Edward,G.
16,Barbara,R.
17,Kathleen,W.
18,Phillip,N.
19,Benjamin,H.
20,Kelly,S.
21,Katherine,F.
22,Kathryn,E.
23,Jean,G.
24,Jesse,M.
25,Johnny,N.
26,Gloria,L.
27,Jacqueline,P.
28,Henry,H.
29,Timothy,B.
30,Sarah,S.
31,David,A.
32,Gloria,J.
33,Shirley,F.
34,Janet,G.
35,Jesse,T.
36,Sarah,N.
37,Joshua,A.
38,Jason,R.
39,Diana,P.
40,Jimmy,C.
41,Jane,C.
42,Howard,S.
43,Helen,N.
44,Rose,H.
45,Thomas,C.
46,Lillian,H.
47,Elizabeth,D.
48,Amy,H.
49,Jacqueline,W.
50,Laura,J.
51,Michael,F.
52,Thomas,E.
53,Virginia,K.
54,Nicole,J.
55,Jimmy,L.
56,Alan,A.
57,Gloria,E.
58,Frances,O.
59,Billy,O.
60,Sean,D.
61,Sean,N.
62,Diana,P.
63,David,T.
64,Anne,M.
65,Judy,T.
66,Dennis,F.
67,Alan,L.
68,Andrea,L.
69,Jack,D.
70,Christina,O.
71,Henry,K.
72,Joshua,B.
73,Anna,T.
74,Todd,J.
75,Nicholas,A.
76,Fred,H.
77,Billy,G.
78,Anna,W.
79,Kelly,M.
80,Louise,M.
81,Kathryn,K.
82,David,L.
83,Arthur,T.
84,Jack,H.
85,Norma,K.
86,Shawn,M.
87,Paul,M.
88,Amy,B.
89,Judy,A.
90,Victor,E.
91,Anna,M.
92,Maria,F.
93,Nicholas,T.
94,Lisa,H.
95,Jane,P.
96,Helen,J.
97,Harry,M.
98,Barbara,T.
99,Jacqueline,T.
100,Jack,R.
101,Johnny,W.
102,Joshua,K.
103,Brenda,B.
104,Gregory,T.
105,Lillian,D.
106,Amanda,T.
107,Diana,K.
108,Gregory,R.
109,David,J.
110,Teresa,A.
111,Victor,E.
112,Elizabeth,M.
113,Michael,O.
114,Maria,G.
115,Sara,A.
116,Barbara,L.
117,Martin,E.
118,Howard,A.
119,Margaret,O.
120,Lisa,A.
121,Judy,T.
122,Benjamin,W.
123,Harold,T.
124,Kelly,G.
125,Louise,T.
126,Edward,D.
127,Amanda,C.
128,Elizabeth,O.
129,Harold,T.
130,Alan,E.
131,Howard,N.
132,Diana,G.
133,Shawn,R.
134,Jacqueline,N.
135,Adam,G.
136,Thomas,K.
137,Todd,C.
138,Alan,S.
139,Nicholas,T.
140,Henry,F.
141,Jesse,N.
142,Andrea,B.
143,Nicholas,F.
144,Christina,O.
145,Judy,G.
146,Kimberly,F.
147,Jean,K.
148,Shirley,B.
149,Kelly,G.
150,Elizabeth,D.
151,Teresa,H.
152,Elizabeth,W.
153,Kelly,L.
154,Elizabeth,C.
155,Adam,S.
156,Paul,A.
157,Henry,N.
158,Amy,N.
159,Henry,G.
160,Jack,J.
161,Jacqueline,F.
162,David,K.
163,Johnny,K.
164,Arthur,F.
165,Paul,R.
166,Margaret,K.
167,Frances,B.
168,Mildred,N.
169,Diana,D.
170,Brenda,L.
171,Todd,O.
172,Steve,G.
173,Frank,R.
174,Jesse,N.
175,Mildred,F.
176,Martin,H.
177,Jesse,J.
178,Willie,L.
179,Jennifer,G.
180,Martin,D.
181,Jesse,M.
182,Katherine,M.
183,Edward,W.
184,Judy,N.
185,Norma,J.
186,Kimberly,T.
187,Jean,L.
188,Martin,O.
189,Margaret,B.
190,Rose,H.
191,Johnny,C.
192,Edward,G.
193,Diana,A.
194,Kelly,S.
195,Christina,C.
196,Katherine,M.
197,Frank,E.
198,Kimberly,K.
199,Anna,J.
200,Brenda,K.
201,Jimmy,A.
202,Judy,W.
203,Gloria,G.
204,Jesse,L.
205,Sara,J.
206,Harry,C.
207,Gerald,D.
208,Kathleen,L.
209,Norma,R.
210,Jesse,L.
211,Judy,G.
212,Steve,B.
213,Willie,L.
214,Paul,G.
215,Katherine,O.
216,Kathleen,E.
217,Marie,N.
218,Marie,A.
219,Lisa,D.
220,Louise,T.
221,Scott,L.
222,Elizabeth,P.
223,Adam,A.
224,Virginia,K.
225,Lisa,M.
226,Gloria,O.
227,Frances,K.
228,Amanda,A.
229,Brenda,K.
230,Mildred,K.
231,Teresa,G.
232,Edward,D.
233,Andrea,R.
234,Martin,W.
235,Lillian,H.
236,Edward,L.
237,Fred,R.
238,Henry,L.
239,Kathleen,C.
240,Louise,A.
241,Anna,E.
242,Thomas,N.
243,Anne,K.
244,Diana,E.
245,Jean,O.
246,Mildred,K.
247,Maria,F.
248,Barbara,G.
249,David,O.
250,Janet,G.
251,Sean,S.
252,Diana,C.
253,Katherine,A.
254,Andrea,H.
255,Katherine,F.
256,Henry,O.
257,Adam,N.
258,Jason,C.
259,Paul,G.
260,Diana,O.
261,Adam,D.
262,Elizabeth,C.
263,Jean,N.
264,Victor,A.
265,Brenda,K.
266,Jack,N.
267,Sarah,N.
268,Paul,R.
269,Michael,E.
270,Paul,W.
271,Lisa,F.
272,Michael,P.
273,Jane,N.
274,Mildred,G.
275,Katherine,R.
276,Louise,M.
277,Margaret,C.
278,Scott,H.
279,Anna,M.
280,Gregory,W.
281,Jesse,R.
282,Judy,T.
283,Marie,R.
284,Rose,E.
285,Anne,A.
286,Rose,B.
287,Harold,C.
288,Willie,G.
289,Elizabeth,F.
290,Lisa,A.
291,Howard,B.
292,Howard,P.
293,Rose,E.
294,Jesse,A.
295,Mary,A.
296,Christina,F.
297,Harold,G.
298,Teresa,D.
299,Lillian,O.
300,Barbara,W.
